%YAML 1.1
%TAG !u! tag:unity3d.com,2011:
--- !u!21 &2100000
Material:
  serializedVersion: 3
  m_ObjectHideFlags: 0
  m_PrefabParentObject: {fileID: 0}
  m_PrefabInternal: {fileID: 0}
  m_Name: Trail2
  m_Shader: {fileID: 4800000, guid: 9ced8be6686666e4a9d4fd03e4ba2439, type: 3}
  m_ShaderKeywords: []
  m_CustomRenderQueue: -1
  m_SavedProperties:
    serializedVersion: 2
    m_TexEnvs:
      data:
        first:
          name: _MainTex
        second:
          m_Texture: {fileID: 2800000, guid: d90a6518efe5b804cadc926e33583f44, type: 3}
          m_Scale: {x: 1, y: 1}
          m_Offset: {x: 0, y: 0}
    m_Floats:
      data:
        first:
          name: _InvFade
        second: 3
      data:
        first:
          name: _TintStrength
        second: 5
      data:
        first:
          name: _CoreStrength
        second: 5
      data:
        first:
          name: _CutOutLightCore
        second: 0
    m_Colors:
      data:
        first:
          name: _Color
        second: {r: 1, g: 1, b: 1, a: 1}
      data:
        first:
          name: _TintColor
        second: {r: 1, g: 0, b: 0, a: 1}
      data:
        first:
          name: _CoreColor
        second: {r: 1, g: .550912797, b: .20588237, a: 1}
