%YAML 1.1
%TAG !u! tag:unity3d.com,2011:
--- !u!1 &164494
GameObject:
  m_ObjectHideFlags: 0
  m_PrefabParentObject: {fileID: 0}
  m_PrefabInternal: {fileID: 100100000}
  serializedVersion: 4
  m_Component:
  - 4: {fileID: 464494}
  - 114: {fileID: 11464494}
  m_Layer: 0
  m_Name: BrickAnimation
  m_TagString: Untagged
  m_Icon: {fileID: 0}
  m_NavMeshLayer: 0
  m_StaticEditorFlags: 0
  m_IsActive: 0
--- !u!4 &464494
Transform:
  m_ObjectHideFlags: 1
  m_PrefabParentObject: {fileID: 0}
  m_PrefabInternal: {fileID: 100100000}
  m_GameObject: {fileID: 164494}
  m_LocalRotation: {x: 0, y: 0, z: 0, w: 1}
  m_LocalPosition: {x: 0, y: 0, z: 0}
  m_LocalScale: {x: 1, y: 1, z: 1}
  m_Children: []
  m_Father: {fileID: 0}
  m_RootOrder: 0
--- !u!114 &11464494
MonoBehaviour:
  m_ObjectHideFlags: 1
  m_PrefabParentObject: {fileID: 0}
  m_PrefabInternal: {fileID: 100100000}
  m_GameObject: {fileID: 164494}
  m_Enabled: 1
  m_EditorHideFlags: 0
  m_Script: {fileID: 11500000, guid: ecaffc43a5d2b1d47858e3fb687e7271, type: 3}
  m_Name: 
  m_EditorClassIdentifier: 
  clips:
  - name: Idle
    frames:
    - spriteCollection: {fileID: 11449334, guid: c740129e5fe1f4744a7a4cb9ce0130b3,
        type: 2}
      spriteId: 14
      triggerEvent: 0
      eventInfo: 
      eventInt: 0
      eventFloat: 0
    fps: 30
    loopStart: 0
    wrapMode: 0
  - name: Damag
    frames:
    - spriteCollection: {fileID: 11449334, guid: c740129e5fe1f4744a7a4cb9ce0130b3,
        type: 2}
      spriteId: 18
      triggerEvent: 0
      eventInfo: 
      eventInt: 0
      eventFloat: 0
    - spriteCollection: {fileID: 11449334, guid: c740129e5fe1f4744a7a4cb9ce0130b3,
        type: 2}
      spriteId: 19
      triggerEvent: 0
      eventInfo: 
      eventInt: 0
      eventFloat: 0
    - spriteCollection: {fileID: 11449334, guid: c740129e5fe1f4744a7a4cb9ce0130b3,
        type: 2}
      spriteId: 20
      triggerEvent: 0
      eventInfo: 
      eventInt: 0
      eventFloat: 0
    - spriteCollection: {fileID: 11449334, guid: c740129e5fe1f4744a7a4cb9ce0130b3,
        type: 2}
      spriteId: 21
      triggerEvent: 0
      eventInfo: 
      eventInt: 0
      eventFloat: 0
    fps: 1
    loopStart: 0
    wrapMode: 2
  - name: 
    frames: []
    fps: 30
    loopStart: 0
    wrapMode: 0
  - name: Construction
    frames:
    - spriteCollection: {fileID: 11449334, guid: c740129e5fe1f4744a7a4cb9ce0130b3,
        type: 2}
      spriteId: 17
      triggerEvent: 0
      eventInfo: 
      eventInt: 0
      eventFloat: 0
    - spriteCollection: {fileID: 11449334, guid: c740129e5fe1f4744a7a4cb9ce0130b3,
        type: 2}
      spriteId: 17
      triggerEvent: 0
      eventInfo: 
      eventInt: 0
      eventFloat: 0
    - spriteCollection: {fileID: 11449334, guid: c740129e5fe1f4744a7a4cb9ce0130b3,
        type: 2}
      spriteId: 16
      triggerEvent: 0
      eventInfo: 
      eventInt: 0
      eventFloat: 0
    - spriteCollection: {fileID: 11449334, guid: c740129e5fe1f4744a7a4cb9ce0130b3,
        type: 2}
      spriteId: 16
      triggerEvent: 0
      eventInfo: 
      eventInt: 0
      eventFloat: 0
    - spriteCollection: {fileID: 11449334, guid: c740129e5fe1f4744a7a4cb9ce0130b3,
        type: 2}
      spriteId: 15
      triggerEvent: 0
      eventInfo: 
      eventInt: 0
      eventFloat: 0
    - spriteCollection: {fileID: 11449334, guid: c740129e5fe1f4744a7a4cb9ce0130b3,
        type: 2}
      spriteId: 15
      triggerEvent: 0
      eventInfo: 
      eventInt: 0
      eventFloat: 0
    - spriteCollection: {fileID: 11449334, guid: c740129e5fe1f4744a7a4cb9ce0130b3,
        type: 2}
      spriteId: 14
      triggerEvent: 0
      eventInfo: 
      eventInt: 0
      eventFloat: 0
    - spriteCollection: {fileID: 11449334, guid: c740129e5fe1f4744a7a4cb9ce0130b3,
        type: 2}
      spriteId: 14
      triggerEvent: 0
      eventInfo: 
      eventInt: 0
      eventFloat: 0
    fps: 30
    loopStart: 0
    wrapMode: 0
  - name: Destruction
    frames:
    - spriteCollection: {fileID: 11449334, guid: c740129e5fe1f4744a7a4cb9ce0130b3,
        type: 2}
      spriteId: 14
      triggerEvent: 0
      eventInfo: 
      eventInt: 0
      eventFloat: 0
    - spriteCollection: {fileID: 11449334, guid: c740129e5fe1f4744a7a4cb9ce0130b3,
        type: 2}
      spriteId: 14
      triggerEvent: 0
      eventInfo: 
      eventInt: 0
      eventFloat: 0
    - spriteCollection: {fileID: 11449334, guid: c740129e5fe1f4744a7a4cb9ce0130b3,
        type: 2}
      spriteId: 15
      triggerEvent: 0
      eventInfo: 
      eventInt: 0
      eventFloat: 0
    - spriteCollection: {fileID: 11449334, guid: c740129e5fe1f4744a7a4cb9ce0130b3,
        type: 2}
      spriteId: 15
      triggerEvent: 0
      eventInfo: 
      eventInt: 0
      eventFloat: 0
    - spriteCollection: {fileID: 11449334, guid: c740129e5fe1f4744a7a4cb9ce0130b3,
        type: 2}
      spriteId: 16
      triggerEvent: 0
      eventInfo: 
      eventInt: 0
      eventFloat: 0
    - spriteCollection: {fileID: 11449334, guid: c740129e5fe1f4744a7a4cb9ce0130b3,
        type: 2}
      spriteId: 16
      triggerEvent: 0
      eventInfo: 
      eventInt: 0
      eventFloat: 0
    - spriteCollection: {fileID: 11449334, guid: c740129e5fe1f4744a7a4cb9ce0130b3,
        type: 2}
      spriteId: 17
      triggerEvent: 0
      eventInfo: 
      eventInt: 0
      eventFloat: 0
    - spriteCollection: {fileID: 11449334, guid: c740129e5fe1f4744a7a4cb9ce0130b3,
        type: 2}
      spriteId: 17
      triggerEvent: 0
      eventInfo: 
      eventInt: 0
      eventFloat: 0
    fps: 30
    loopStart: 0
    wrapMode: 2
--- !u!1001 &100100000
Prefab:
  m_ObjectHideFlags: 1
  serializedVersion: 2
  m_Modification:
    m_TransformParent: {fileID: 0}
    m_Modifications: []
    m_RemovedComponents: []
  m_ParentPrefab: {fileID: 0}
  m_RootGameObject: {fileID: 164494}
  m_IsPrefabParent: 1
  m_IsExploded: 1
