%YAML 1.1
%TAG !u! tag:unity3d.com,2011:
--- !u!114 &11400000
MonoBehaviour:
  m_ObjectHideFlags: 0
  m_PrefabParentObject: {fileID: 0}
  m_PrefabInternal: {fileID: 0}
  m_GameObject: {fileID: 0}
  m_Enabled: 1
  m_EditorHideFlags: 0
  m_Script: {fileID: 11500000, guid: fb356b9a6a1da084695128b00c8721be, type: 3}
  m_Name: tileMapData
  m_EditorClassIdentifier: 
  tileSize: {x: .0711111128, y: .0711111128, z: 0}
  tileOrigin: {x: -.0355555564, y: -.0355555564, z: 0}
  tileType: 0
  sortMethod: 0
  layersFixedZ: 0
  useSortingLayers: 0
  tilePrefabs:
  - {fileID: 0}
  - {fileID: 0}
  - {fileID: 0}
  - {fileID: 0}
  - {fileID: 0}
  - {fileID: 0}
  - {fileID: 0}
  - {fileID: 0}
  - {fileID: 0}
  - {fileID: 0}
  - {fileID: 0}
  - {fileID: 0}
  - {fileID: 0}
  - {fileID: 0}
  - {fileID: 0}
  - {fileID: 0}
  - {fileID: 0}
  - {fileID: 0}
  - {fileID: 0}
  - {fileID: 0}
  - {fileID: 0}
  - {fileID: 0}
  tileInfo:
  - stringVal: 
    intVal: 0
    floatVal: 0
    enablePrefabOffset: 0
  - stringVal: 
    intVal: 0
    floatVal: 0
    enablePrefabOffset: 0
  - stringVal: 
    intVal: 0
    floatVal: 0
    enablePrefabOffset: 0
  - stringVal: 
    intVal: 0
    floatVal: 0
    enablePrefabOffset: 0
  - stringVal: 
    intVal: 0
    floatVal: 0
    enablePrefabOffset: 0
  - stringVal: 
    intVal: 0
    floatVal: 0
    enablePrefabOffset: 0
  - stringVal: 
    intVal: 0
    floatVal: 0
    enablePrefabOffset: 0
  - stringVal: 
    intVal: 0
    floatVal: 0
    enablePrefabOffset: 0
  - stringVal: 
    intVal: 0
    floatVal: 0
    enablePrefabOffset: 0
  - stringVal: 
    intVal: 0
    floatVal: 0
    enablePrefabOffset: 0
  - stringVal: 
    intVal: 0
    floatVal: 0
    enablePrefabOffset: 0
  - stringVal: 
    intVal: 0
    floatVal: 0
    enablePrefabOffset: 0
  - stringVal: 
    intVal: 0
    floatVal: 0
    enablePrefabOffset: 0
  - stringVal: 
    intVal: 0
    floatVal: 0
    enablePrefabOffset: 0
  - stringVal: 
    intVal: 0
    floatVal: 0
    enablePrefabOffset: 0
  - stringVal: 
    intVal: 0
    floatVal: 0
    enablePrefabOffset: 0
  - stringVal: 
    intVal: 0
    floatVal: 0
    enablePrefabOffset: 0
  - stringVal: 
    intVal: 0
    floatVal: 0
    enablePrefabOffset: 0
  - stringVal: 
    intVal: 0
    floatVal: 0
    enablePrefabOffset: 0
  - stringVal: 
    intVal: 0
    floatVal: 0
    enablePrefabOffset: 0
  - stringVal: 
    intVal: 0
    floatVal: 0
    enablePrefabOffset: 0
  - stringVal: 
    intVal: 0
    floatVal: 0
    enablePrefabOffset: 0
  tileMapLayers:
  - name: Layer 0
    hash: 1892887448
    useColor: 1
    generateCollider: 1
    z: 0
    unityLayer: 10
    sortingLayerName: 
    sortingOrder: 0
    skipMeshGeneration: 0
    physicMaterial: {fileID: 0}
    physicsMaterial2D: {fileID: 0}
